<?xml version="1.0" encoding="utf-8"?>
<!-- Generator: Adobe Illustrator 16.0.0, SVG Export Plug-In . SVG Version: 6.00 Build 0)  -->
<!DOCTYPE svg PUBLIC "-//W3C//DTD SVG 1.1//EN" "http://www.w3.org/Graphics/SVG/1.1/DTD/svg11.dtd">
<svg version="1.1" id="Layer_1" xmlns="http://www.w3.org/2000/svg" xmlns:xlink="http://www.w3.org/1999/xlink" x="0px" y="0px"
	 width="2500px" height="2500px" viewBox="0 0 2500 2500" enable-background="new 0 0 2500 2500" xml:space="preserve">
<path fill="#FFFFFF" d="M2362.024,0H137.985C61.766,0,0.009,61.766,0.009,137.976v2224.04c0,76.2,61.756,137.975,137.976,137.975
	h1197.334v-968.124h-325.793v-377.302h325.793V876.318c0-322.908,197.212-498.735,485.274-498.735
	c137.967,0,256.571,10.275,291.126,14.865v337.455l-199.788,0.094c-156.653,0-186.983,74.439-186.983,183.677v240.891h373.62
	l-48.652,377.302h-324.959v968.124h637.067v0.01c76.19,0,137.966-61.785,137.966-137.976V137.976
	C2499.99,61.756,2438.206,0,2362.024,0z"/>
</svg>
